{
	"info": {
		"_postman_id": "de619f55-aab7-48c2-8321-5521ab2d9017",
		"name": "s33",
		"schema": "https://schema.getpostman.com/json/collection/v2.1.0/collection.json"
	},
	"item": [
		{
			"name": "get specific post",
			"request": {
				"method": "GET",
				"header": [],
				"url": {
					"raw": "https://jsonplaceholder.typicode.com/posts/10",
					"protocol": "https",
					"host": [
						"jsonplaceholder",
						"typicode",
						"com"
					],
					"path": [
						"posts",
						"10"
					]
				}
			},
			"response": []
		},
		{
			"name": "post new post",
			"request": {
				"method": "GET",
				"header": [],
				"url": null
			},
			"response": []
		},
		{
			"name": "get all todo list items",
			"request": {
				"method": "GET",
				"header": [],
				"url": {
					"raw": "https://jsonplaceholder.typicode.com/todos",
					"protocol": "https",
					"host": [
						"jsonplaceholder",
						"typicode",
						"com"
					],
					"path": [
						"todos"
					]
				}
			},
			"response": []
		},
		{
			"name": "get todo list item",
			"request": {
				"method": "GET",
				"header": [],
				"url": {
					"raw": "https://jsonplaceholder.typicode.com/todos/1",
					"protocol": "https",
					"host": [
						"jsonplaceholder",
						"typicode",
						"com"
					],
					"path": [
						"todos",
						"1"
					]
				}
			},
			"response": []
		},
		{
			"name": "create todo list item",
			"request": {
				"method": "POST",
				"header": [],
				"url": {
					"raw": "https://jsonplaceholder.typicode.com/todos",
					"protocol": "https",
					"host": [
						"jsonplaceholder",
						"typicode",
						"com"
					],
					"path": [
						"todos"
					]
				}
			},
			"response": []
		},
		{
			"name": "update todo list item PUT",
			"request": {
				"method": "PUT",
				"header": [],
				"body": {
					"mode": "raw",
					"raw": "{\r\n     \"userId\": 1,\r\n        \"title\": \"Run errands\",\r\n        \"description\": \"Go to grocery, take out trash\",\r\n        \"completed\": true\r\n}",
					"options": {
						"raw": {
							"language": "json"
						}
					}
				},
				"url": {
					"raw": "https://jsonplaceholder.typicode.com/todos/1",
					"protocol": "https",
					"host": [
						"jsonplaceholder",
						"typicode",
						"com"
					],
					"path": [
						"todos",
						"1"
					]
				}
			},
			"response": []
		},
		{
			"name": "update todo list item PATCH",
			"request": {
				"method": "PATCH",
				"header": [],
				"body": {
					"mode": "raw",
					"raw": "{\r\n\r\n        \"title\": \"Run errands\"\r\n      \r\n}",
					"options": {
						"raw": {
							"language": "json"
						}
					}
				},
				"url": {
					"raw": "https://jsonplaceholder.typicode.com/todos/1",
					"protocol": "https",
					"host": [
						"jsonplaceholder",
						"typicode",
						"com"
					],
					"path": [
						"todos",
						"1"
					]
				}
			},
			"response": []
		},
		{
			"name": "delete todo list item",
			"request": {
				"method": "DELETE",
				"header": [],
				"body": {
					"mode": "raw",
					"raw": "{\r\n\r\n        \"title\": \"Run errands\"\r\n      \r\n}",
					"options": {
						"raw": {
							"language": "json"
						}
					}
				},
				"url": {
					"raw": "https://jsonplaceholder.typicode.com/todos/1",
					"protocol": "https",
					"host": [
						"jsonplaceholder",
						"typicode",
						"com"
					],
					"path": [
						"todos",
						"1"
					]
				}
			},
			"response": []
		}
	]
}